Over-representation analysis 3: GOseq with GO term in non-model organisms | Daddy's data analysis by Kazu Nozue
…
Br.v3.0anno.At.BLAST

## # A tibble: 38,899 x 19
##       X1 name  chrom start   end subject AGI   At_symbol At_description
##    <int> <chr> <chr> <int> <int> <chr>   <chr> <chr>     <chr>         
##  1     1 BraA… A01    2864  5220 AT1G43… AT1G… <NA>      <NA>          
##  2     2 BraA… A01    5264  7621 AT4G38… AT4G… LAZ1      <NA>          
##  3     3 BraA… A01    8705  9661 AT4G38… AT4G… <NA>      <NA>          
##  4     4 BraA… A01   10292 11917 AT4G38… AT4G… AQI       <NA>          
##  5     5 BraA… A01   12431 13279 AT4G38… AT4G… ATEXP20;… expansin -lik…
##  6     6 BraA… A01   16133 19645 AT4G38… AT4G… ATCSLD4;… encodes a gen…
##  7     7 BraA… A01   21106 22090 AT4G38… AT4G… ATEXLA2;… member of EXP…
##  8     8 BraA… A01   23348 24434 AT4G38… AT4G… AtSSU;GG… <NA>          
##  9     9 BraA… A01   29350 32812 AT4G38… AT4G… STY46     <NA>          
## 10    10 BraA… A01   33188 33706 AT4G38… AT4G… <NA>      <NA>          
## # ... with 38,889 more rows, and 10 more variables: perc_ID <dbl>,
## #   aln_length <int>, mismatch <int>, gap_open <int>, qstart <int>,
## #   qend <int>, sstart <int>, send <int>, eval <dbl>, score <dbl>
…
