Home electricity 2019-2023 | Daddy's data analysis by Kazu Nozue
…
# cut date with PGE `START DATE`
energy <- energy %>% mutate(year.month.day2  =as.Date(cut(as.POSIXct(energy$DATE2),breaks=as.POSIXct(mdy(PGE.NEM.since2019$`START DATE`[-1])))))
energy #%>% View()

## # A tibble: 1,581 × 12
##    DATE    Sunpo…¹ Illum…² Water…³ DATE2      date        year month   day  yday
##    <chr>     <dbl>   <dbl>   <dbl> <date>     <date>     <dbl> <fct> <int> <dbl>
##  1 1/1/20…     5.5      NA      NA 2019-01-01 2019-01-01  2019 1         1     1
##  2 1/2/20…     5.2      NA      NA 2019-01-02 2019-01-02  2019 1         2     2
##  3 1/3/20…     5.3      NA      NA 2019-01-03 2019-01-03  2019 1         3     3
##  4 1/4/20…     5        NA      NA 2019-01-04 2019-01-04  2019 1         4     4
##  5 1/5/20…     0.6      NA      NA 2019-01-05 2019-01-05  2019 1         5     5
##  6 1/6/20…     0.9      NA      NA 2019-01-06 2019-01-06  2019 1         6     6
##  7 1/7/20…     3.7      NA      NA 2019-01-07 2019-01-07  2019 1         7     7
##  8 1/8/20…     1.6      NA      NA 2019-01-08 2019-01-08  2019 1         8     8
##  9 1/9/20…     4.3      NA      NA 2019-01-09 2019-01-09  2019 1         9     9
## 10 1/10/2…     3        NA      NA 2019-01-10 2019-01-10  2019 1        10    10
## # … with 1,571 more rows, 2 more variables: wday <dbl>, year.month.day2 <date>,
## #   and abbreviated variable names ¹​Sunpower, ²​`Illum solar`,
## #   ³​`Water heat pump`
…
