DGE clustering with ggplot2 | Daddy's data analysis by Kazu Nozue
…
cpm.wide <- bind_cols(dge.nolow$gene,as_tibble(cpm(dge.nolow))) %>% as_tibble() %>% rename(transcript_ID=genes)
cpm.wide

## # A tibble: 16,799 x 13
##    transcript_ID SRR6739807 SRR6739808 SRR6739809 SRR6739810 SRR6739811
##    <chr>              <dbl>      <dbl>      <dbl>      <dbl>      <dbl>
##  1 AT1G50920.1       169.       164.       175.       158.       184.  
##  2 AT1G15970.1        20.0       19.7       15.2       15.6       14.6 
##  3 AT1G73440.1         6.22       6.17       7.39       6.33       7.10
##  4 AT1G75120.1         2.44       2.20       3.55       4.94       5.59
##  5 AT1G17600.1        32.1       36.5       11.1        9.87      12.1 
##  6 AT1G77370.1        34.1       36.3       23.7       25.1       22.9 
##  7 AT1G10950.1       172.       171.       133.       148.       173.  
##  8 AT1G31870.1        40.8       38.5       26.8       26.9       33.3 
##  9 AT1G51360.1         7.40       7.64       9.07      10.4        6.82
## 10 AT1G50950.1         4.45       4.49       3.74       5.16       5.50
## # ... with 16,789 more rows, and 7 more variables: SRR6739812 <dbl>,
## #   SRR6739813 <dbl>, SRR6739814 <dbl>, SRR6739815 <dbl>,
## #   SRR6739816 <dbl>, SRR6739817 <dbl>, SRR6739818 <dbl>
…
