Over-representation analysis 5: useful tools | Daddy's data analysis by Kazu Nozue
…
names(DEG.list)<-gsub(".csv","",DEG.objs)
head(DEG.list)

## $genotypenpr1_genotypenpr1.treatmenttreated.DEGs.int.rWT.rU
## # A tibble: 6,694 x 10
##    genes logFC.genotypen… logFC.genotypen… logCPM    LR    PValue       FDR
##    <chr>            <dbl>            <dbl>  <dbl> <dbl>     <dbl>     <dbl>
##  1 AT2G…        -4.20               -0.720   6.69 1300. 5.30e-283 1.78e-278
##  2 AT5G…         3.26                0.530   4.76 1000. 5.96e-218 1.00e-213
##  3 AT1G…        -2.02               -0.475   7.19  629. 2.69e-137 3.01e-133
##  4 AT1G…        -2.26               -0.511   7.51  620. 2.83e-135 2.38e-131
##  5 AT3G…        -3.16                0.888   5.33  618. 5.42e-135 3.64e-131
##  6 AT5G…        -0.212              -6.72    3.89  607. 1.67e-132 9.35e-129
##  7 AT2G…         2.22                1.95    9.21  572. 7.80e-125 3.74e-121
##  8 AT5G…         1.82                1.83    9.40  570. 1.54e-124 6.46e-121
##  9 AT1G…        -3.65               -1.52    3.37  565. 1.92e-123 7.17e-120
## 10 AT5G…         0.000149           -7.96    3.77  546. 2.42e-119 8.12e-116
## # … with 6,684 more rows, and 3 more variables: AGI <chr>, symbol2 <chr>,
## #   full_name <chr>
## 
## $genotypenpr4_genotypenpr4.treatmenttreated.DEGs.int.rWT.rU
## # A tibble: 846 x 10
##    genes logFC.genotypen… logFC.genotypen… logCPM    LR    PValue       FDR
##    <chr>            <dbl>            <dbl>  <dbl> <dbl>     <dbl>     <dbl>
##  1 AT5G…             3.04            0.628   4.76  904. 5.00e-197 1.68e-192
##  2 AT3G…            -5.45           -0.183   1.98  459. 1.80e-100 3.03e- 96
##  3 AT5G…            -3.30            0.354   3.10  444. 4.51e- 97 5.05e- 93
##  4 AT1G…            -7.40           -3.70    2.00  432. 1.32e- 94 1.11e- 90
##  5 AT3G…            -2.97           -0.301   3.36  372. 1.83e- 81 1.23e- 77
##  6 AT1G…            -2.50            0.891   6.30  288. 2.54e- 63 1.42e- 59
##  7 AT2G…            -1.42           -0.703   6.69  277. 7.63e- 61 3.66e- 57
##  8 AT5G…            -3.04            0.434   4.19  211. 1.75e- 46 7.36e- 43
##  9 AT2G…            -1.10           -0.237   5.87  209. 5.09e- 46 1.90e- 42
## 10 AT5G…            -1.84           -0.489   2.78  187. 2.68e- 41 9.01e- 38
## # … with 836 more rows, and 3 more variables: AGI <chr>, symbol2 <chr>,
## #   full_name <chr>
## 
## $trt.DEGs.int.rWT.rU
## # A tibble: 7,811 x 9
##    genes  logFC logCPM    LR    PValue       FDR AGI    symbol2  full_name      
##    <chr>  <dbl>  <dbl> <dbl>     <dbl>     <dbl> <chr>  <chr>    <chr>          
##  1 AT5G1…  8.57   3.89  675. 7.55e-149 2.54e-144 AT5G1… AT-HSP1… heat shock pro…
##  2 AT1G0…  4.00   4.60  592. 7.94e-131 1.33e-126 AT1G0… <NA>     <NA>           
##  3 AT5G2…  6.16   4.19  588. 5.77e-130 6.46e-126 AT5G2… ATWRKY3… ARABIDOPSIS TH…
##  4 AT4G2…  3.85   5.39  586. 1.92e-129 1.59e-125 AT4G2… CRK14    cysteine-rich …
##  5 AT5G1…  9.64   3.77  586. 2.37e-129 1.59e-125 AT5G1… HSP17.6… 17.6 kDa class…
##  6 AT3G2…  4.92   3.36  546. 9.68e-121 5.42e-117 AT3G2… <NA>     <NA>           
##  7 AT4G2…  3.34   6.70  539. 2.78e-119 1.33e-115 AT4G2… SGT1A    <NA>           
##  8 AT5G2…  3.82   6.70  535. 2.42e-118 1.02e-114 AT5G2… AtDMR6;… NA;DOWNY MILDE…
##  9 AT5G0…  4.14   7.14  523. 1.07e-115 3.98e-112 AT5G0… AtHsp70… NA;NA          
## 10 AT1G2…  2.87   7.19  511. 3.43e-113 1.15e-109 AT1G2… AtWAK1;… NA;NA;cell wal…
## # … with 7,801 more rows
…
names(DEG.map) <-  str_split(DEG.objs2,pattern="/",simplify=TRUE)[,7] %>% str_remove(".csv")
head(DEG.map)

## $genotypenpr1_genotypenpr1.treatmenttreated.DEGs.int.rWT.rU
## # A tibble: 6,694 x 10
##    genes logFC.genotypen… logFC.genotypen… logCPM    LR    PValue       FDR
##    <chr>            <dbl>            <dbl>  <dbl> <dbl>     <dbl>     <dbl>
##  1 AT2G…        -4.20               -0.720   6.69 1300. 5.30e-283 1.78e-278
##  2 AT5G…         3.26                0.530   4.76 1000. 5.96e-218 1.00e-213
##  3 AT1G…        -2.02               -0.475   7.19  629. 2.69e-137 3.01e-133
##  4 AT1G…        -2.26               -0.511   7.51  620. 2.83e-135 2.38e-131
##  5 AT3G…        -3.16                0.888   5.33  618. 5.42e-135 3.64e-131
##  6 AT5G…        -0.212              -6.72    3.89  607. 1.67e-132 9.35e-129
##  7 AT2G…         2.22                1.95    9.21  572. 7.80e-125 3.74e-121
##  8 AT5G…         1.82                1.83    9.40  570. 1.54e-124 6.46e-121
##  9 AT1G…        -3.65               -1.52    3.37  565. 1.92e-123 7.17e-120
## 10 AT5G…         0.000149           -7.96    3.77  546. 2.42e-119 8.12e-116
## # … with 6,684 more rows, and 3 more variables: AGI <chr>, symbol2 <chr>,
## #   full_name <chr>
## 
## $genotypenpr4_genotypenpr4.treatmenttreated.DEGs.int.rWT.rU
## # A tibble: 846 x 10
##    genes logFC.genotypen… logFC.genotypen… logCPM    LR    PValue       FDR
##    <chr>            <dbl>            <dbl>  <dbl> <dbl>     <dbl>     <dbl>
##  1 AT5G…             3.04            0.628   4.76  904. 5.00e-197 1.68e-192
##  2 AT3G…            -5.45           -0.183   1.98  459. 1.80e-100 3.03e- 96
##  3 AT5G…            -3.30            0.354   3.10  444. 4.51e- 97 5.05e- 93
##  4 AT1G…            -7.40           -3.70    2.00  432. 1.32e- 94 1.11e- 90
##  5 AT3G…            -2.97           -0.301   3.36  372. 1.83e- 81 1.23e- 77
##  6 AT1G…            -2.50            0.891   6.30  288. 2.54e- 63 1.42e- 59
##  7 AT2G…            -1.42           -0.703   6.69  277. 7.63e- 61 3.66e- 57
##  8 AT5G…            -3.04            0.434   4.19  211. 1.75e- 46 7.36e- 43
##  9 AT2G…            -1.10           -0.237   5.87  209. 5.09e- 46 1.90e- 42
## 10 AT5G…            -1.84           -0.489   2.78  187. 2.68e- 41 9.01e- 38
## # … with 836 more rows, and 3 more variables: AGI <chr>, symbol2 <chr>,
## #   full_name <chr>
## 
## $trt.DEGs.int.rWT.rU
## # A tibble: 7,811 x 9
##    genes  logFC logCPM    LR    PValue       FDR AGI    symbol2  full_name      
##    <chr>  <dbl>  <dbl> <dbl>     <dbl>     <dbl> <chr>  <chr>    <chr>          
##  1 AT5G1…  8.57   3.89  675. 7.55e-149 2.54e-144 AT5G1… AT-HSP1… heat shock pro…
##  2 AT1G0…  4.00   4.60  592. 7.94e-131 1.33e-126 AT1G0… <NA>     <NA>           
##  3 AT5G2…  6.16   4.19  588. 5.77e-130 6.46e-126 AT5G2… ATWRKY3… ARABIDOPSIS TH…
##  4 AT4G2…  3.85   5.39  586. 1.92e-129 1.59e-125 AT4G2… CRK14    cysteine-rich …
##  5 AT5G1…  9.64   3.77  586. 2.37e-129 1.59e-125 AT5G1… HSP17.6… 17.6 kDa class…
##  6 AT3G2…  4.92   3.36  546. 9.68e-121 5.42e-117 AT3G2… <NA>     <NA>           
##  7 AT4G2…  3.34   6.70  539. 2.78e-119 1.33e-115 AT4G2… SGT1A    <NA>           
##  8 AT5G2…  3.82   6.70  535. 2.42e-118 1.02e-114 AT5G2… AtDMR6;… NA;DOWNY MILDE…
##  9 AT5G0…  4.14   7.14  523. 1.07e-115 3.98e-112 AT5G0… AtHsp70… NA;NA          
## 10 AT1G2…  2.87   7.19  511. 3.43e-113 1.15e-109 AT1G2… AtWAK1;… NA;NA;cell wal…
## # … with 7,801 more rows
…
