DGE clustering with ggplot2 | Daddy's data analysis by Kazu Nozue
…
cpm.wide <- bind_cols(dge.nolow$gene,as_tibble(cpm(dge.nolow))) %>% as_tibble() %>% rename(transcript_ID=genes)
cpm.wide

## # A tibble: 16,799 x 13
##    transcript_ID SRR6739807 SRR6739808 SRR6739809 SRR6739810 SRR6739811
##    <chr>              <dbl>      <dbl>      <dbl>      <dbl>      <dbl>
##  1 AT1G50920.1       169.       164.       175.       158.       184.  
##  2 AT1G15970.1        20.0       19.7       15.2       15.6       14.6 
##  3 AT1G73440.1         6.22       6.17       7.39       6.33       7.10
##  4 AT1G75120.1         2.44       2.20       3.55       4.94       5.59
##  5 AT1G17600.1        32.1       36.5       11.1        9.87      12.1 
##  6 AT1G77370.1        34.1       36.3       23.7       25.1       22.9 
##  7 AT1G10950.1       172.       171.       133.       148.       173.  
##  8 AT1G31870.1        40.8       38.5       26.8       26.9       33.3 
##  9 AT1G51360.1         7.40       7.64       9.07      10.4        6.82
## 10 AT1G50950.1         4.45       4.49       3.74       5.16       5.50
## # … with 16,789 more rows, and 7 more variables: SRR6739812 <dbl>,
## #   SRR6739813 <dbl>, SRR6739814 <dbl>, SRR6739815 <dbl>, SRR6739816 <dbl>,
## #   SRR6739817 <dbl>, SRR6739818 <dbl>
…
names(DEG.list) <- str_split(DEG.objs,pattern="/",simplify=TRUE)[,7] %>% str_remove(".csv")
head(DEG.list)

## $genotypenpr1_genotypenpr1.treatmenttreated.DEGs.int.rWT.rU
## # A tibble: 6,460 x 10
##    genes logFC.genotypen… logFC.genotypen… logCPM    LR    PValue       FDR
##    <chr>            <dbl>            <dbl>  <dbl> <dbl>     <dbl>     <dbl>
##  1 AT2G…           -4.19            -0.733   6.69 1327. 6.75e-289 1.13e-284
##  2 AT5G…            3.26             0.517   4.76 1072. 1.33e-233 1.11e-229
##  3 AT1G…           -2.01            -0.488   7.19  659. 6.38e-144 3.57e-140
##  4 AT1G…           -2.25            -0.525   7.51  624. 2.54e-136 1.07e-132
##  5 AT3G…           -3.15             0.874   5.33  622. 1.00e-135 3.36e-132
##  6 AT5G…           -0.206           -6.73    3.90  595. 7.88e-130 2.21e-126
##  7 AT1G…           -3.64            -1.53    3.37  581. 7.28e-127 1.75e-123
##  8 AT5G…            1.83             1.82    9.40  571. 1.04e-124 2.18e-121
##  9 AT2G…            2.23             1.94    9.22  559. 4.26e-122 7.94e-119
## 10 AT5G…           -2.01            -3.49    4.19  538. 1.19e-117 2.00e-114
## # … with 6,450 more rows, and 3 more variables: AGI <chr>, symbol2 <chr>,
## #   full_name <chr>
## 
## $genotypenpr4_genotypenpr4.treatmenttreated.DEGs.int.rWT.rU
## # A tibble: 854 x 10
##    genes logFC.genotypen… logFC.genotypen… logCPM    LR    PValue       FDR
##    <chr>            <dbl>            <dbl>  <dbl> <dbl>     <dbl>     <dbl>
##  1 AT5G…             3.04            0.632   4.76  966. 1.54e-210 2.59e-206
##  2 AT5G…            -3.31            0.358   3.10  463. 3.40e-101 2.85e- 97
##  3 AT3G…            -5.46           -0.178   1.98  454. 2.07e- 99 1.16e- 95
##  4 AT1G…            -7.41           -3.70    2.00  424. 6.68e- 93 2.80e- 89
##  5 AT3G…            -2.97           -0.297   3.36  393. 4.39e- 86 1.47e- 82
##  6 AT2G…            -1.42           -0.699   6.69  284. 2.63e- 62 7.35e- 59
##  7 AT1G…            -2.50            0.894   6.30  280. 1.23e- 61 2.96e- 58
##  8 AT2G…            -1.10           -0.233   5.87  221. 9.62e- 49 2.02e- 45
##  9 AT5G…            -3.04            0.438   4.19  208. 6.15e- 46 1.15e- 42
## 10 AT5G…            -1.84           -0.485   2.78  190. 4.64e- 42 7.79e- 39
## # … with 844 more rows, and 3 more variables: AGI <chr>, symbol2 <chr>,
## #   full_name <chr>
## 
## $trt.DEGs.int.rWT.rU
## # A tibble: 7,862 x 9
##    genes  logFC logCPM    LR    PValue       FDR AGI    symbol2  full_name      
##    <chr>  <dbl>  <dbl> <dbl>     <dbl>     <dbl> <chr>  <chr>    <chr>          
##  1 AT5G1…  8.58   3.90  662. 5.49e-146 9.22e-142 AT5G1… AT-HSP1… heat shock pro…
##  2 AT1G0…  4.01   4.60  613. 2.14e-135 1.80e-131 AT1G0… <NA>     <NA>           
##  3 AT4G2…  3.86   5.39  586. 2.36e-129 1.32e-125 AT4G2… CRK14    cysteine-rich …
##  4 AT5G2…  6.17   4.19  582. 1.27e-128 5.32e-125 AT5G2… ATWRKY3… ARABIDOPSIS TH…
##  5 AT3G2…  4.93   3.36  578. 9.46e-128 3.18e-124 AT3G2… <NA>     <NA>           
##  6 AT5G1…  9.65   3.77  569. 1.18e-125 3.30e-122 AT5G1… HSP17.6… 17.6 kDa class…
##  7 AT4G2…  3.34   6.70  563. 1.80e-124 4.32e-121 AT4G2… SGT1A    <NA>           
##  8 AT1G2…  2.88   7.19  539. 2.54e-119 5.34e-116 AT1G2… AtWAK1;… NA;NA;cell wal…
##  9 AT5G2…  3.83   6.70  529. 4.88e-117 9.12e-114 AT5G2… AtDMR6;… NA;DOWNY MILDE…
## 10 AT2G1…  2.96   7.30  512. 2.22e-113 3.73e-110 AT2G1… ATSERK4… SOMATIC EMBRYO…
## # … with 7,852 more rows
…
