Over-representation analysis 3: GOseq with GO term in non-model organisms | Daddy's data analysis by Kazu Nozue
…
Br.v1.0anno.At.BLAST

## # A tibble: 37,670 x 12
##    query subject perc_ID aln_length mismatch gap_open qstart  qend sstart
##    <chr> <chr>     <dbl>      <int>    <int>    <int>  <int> <int>  <int>
##  1 Bra0… AT2G37…    85.0       1509      149        7      1  1506      1
##  2 Bra0… AT2G37…    86.8       1080      141        2      1  1079      1
##  3 Bra0… AT2G37…    83.1        590       75        7      1   570      1
##  4 Bra0… AT2G37…    81.9        365       63        2      1   365      1
##  5 Bra0… AT2G37…    82.8       1218      161        9      1  1179      1
##  6 Bra0… AT3G53…    85.1        308       46        0      1   308      1
##  7 Bra0… AT2G37…    78.6        729      117       10      1   711      1
##  8 Bra0… AT2G37…    81.7        750       77        7      1   702      1
##  9 Bra0… AT2G37…    88.1        337       37        1    319   652      1
## 10 Bra0… AT2G37…    91.5       1132       96        0      1  1132      1
## # ... with 37,660 more rows, and 3 more variables: send <int>, eval <dbl>,
## #   score <dbl>
…
