VennDiagram with differentially expressed genes | Daddy's data analysis by Kazu Nozue
…
names(DEG.count.list)<- str_split(DEG.objs,pattern="/",simplify=TRUE)[,7] %>% str_remove(".csv")

Interpretation of edgeR glm double coefficient results (topTag)

names(DEG.count.list)

## [1] "genotypenpr1_genotypenpr1.treatmenttreated.DEGs.int.rWT.rU"  
## [2] "genotypenpr1_genotypenpr1.treatmentuntreated.DEGs.int.rWT.rT"
## [3] "genotypenpr4_genotypenpr4.treatmenttreated.DEGs.int.rWT.rU"  
## [4] "trt.DEGs.int.rWT.rU"

# reference in treatment was "untreated"
DEG.count.list[["genotypenpr1_genotypenpr1.treatmenttreated.DEGs.int.rWT.rU"]]

## # A tibble: 6,460 x 10
##    genes logFC.genotypen… logFC.genotypen… logCPM    LR    PValue       FDR
##    <chr>            <dbl>            <dbl>  <dbl> <dbl>     <dbl>     <dbl>
##  1 AT2G…           -4.19            -0.733   6.69 1327. 6.75e-289 1.13e-284
##  2 AT5G…            3.26             0.517   4.76 1072. 1.33e-233 1.11e-229
##  3 AT1G…           -2.01            -0.488   7.19  659. 6.38e-144 3.57e-140
##  4 AT1G…           -2.25            -0.525   7.51  624. 2.54e-136 1.07e-132
##  5 AT3G…           -3.15             0.874   5.33  622. 1.00e-135 3.36e-132
##  6 AT5G…           -0.206           -6.73    3.90  595. 7.88e-130 2.21e-126
##  7 AT1G…           -3.64            -1.53    3.37  581. 7.28e-127 1.75e-123
##  8 AT5G…            1.83             1.82    9.40  571. 1.04e-124 2.18e-121
##  9 AT2G…            2.23             1.94    9.22  559. 4.26e-122 7.94e-119
## 10 AT5G…           -2.01            -3.49    4.19  538. 1.19e-117 2.00e-114
## # … with 6,450 more rows, and 3 more variables: AGI <chr>, symbol2 <chr>,
## #   full_name <chr>

# reference in treatment was "treated"
## genotypenpr1_genotypenpr1.treatmentuntreated.DEGs.int.rWT.rT
DEG.count.list[["genotypenpr1_genotypenpr1.treatmentuntreated.DEGs.int.rWT.rT"]]

## # A tibble: 10,074 x 10
##    genes logFC.genotypen… logFC.genotypen… logCPM    LR    PValue       FDR
##    <chr>            <dbl>            <dbl>  <dbl> <dbl>     <dbl>     <dbl>
##  1 AT2G…            -4.92            0.733   6.69 1327. 6.75e-289 1.13e-284
##  2 AT5G…             3.78           -0.517   4.76 1072. 1.33e-233 1.11e-229
##  3 AT1G…            -2.50            0.488   7.19  659. 6.38e-144 3.57e-140
##  4 AT1G…            -2.50            0.488   7.19  659. 6.38e-144 3.57e-140
##  5 AT1G…            -2.50            0.488   7.19  659. 6.38e-144 3.57e-140
##  6 AT1G…            -2.78            0.525   7.51  624. 2.54e-136 1.07e-132
##  7 AT3G…            -2.28           -0.874   5.33  622. 1.00e-135 3.36e-132
##  8 AT5G…            -6.94            6.73    3.90  595. 7.88e-130 2.21e-126
##  9 AT5G…            -6.94            6.73    3.90  595. 7.88e-130 2.21e-126
## 10 AT5G…            -6.94            6.73    3.90  595. 7.88e-130 2.21e-126
## # … with 10,064 more rows, and 3 more variables: AGI <chr>, symbol <chr>,
## #   full_name <chr>
…
