Over-representation analysis 2: GOseq with custom categories |
…
hormone.responsiveness6.DF.s.list2.DF2

## # A tibble: 519 x 20
##    ABAdown ACCup ACCdown BLup  BLdown IAAup IAAdown MJup  MJdown CKup 
##    <chr>   <chr> <chr>   <chr> <chr>  <chr> <chr>   <chr> <chr>  <chr>
##  1 AT1G21… AT1G… AT1G70… AT1G… AT1G2… AT1G… AT1G74… AT1G… AT1G7… AT1G…
##  2 AT1G21… AT1G… AT1G29… AT1G… AT1G1… AT1G… AT1G31… AT1G… AT1G3… AT1G…
##  3 AT1G49… AT1G… AT1G28… AT1G… AT1G6… AT1G… AT1G17… AT1G… AT1G6… AT1G…
##  4 AT1G73… AT1G… AT1G64… AT2G… AT1G0… AT1G… AT1G13… AT1G… AT1G7… AT1G…
##  5 AT1G70… AT1G… AT1G72… AT2G… AT1G7… AT1G… AT1G18… AT1G… AT1G4… AT1G…
##  6 AT1G31… AT2G… AT2G26… AT2G… AT1G1… AT1G… AT1G31… AT1G… AT1G7… AT1G…
##  7 AT1G77… AT2G… AT2G24… AT2G… AT1G7… AT1G… AT1G77… AT1G… AT1G1… AT1G…
##  8 AT1G16… AT2G… AT2G03… AT2G… AT2G2… AT1G… AT1G13… AT1G… AT1G6… AT1G…
##  9 AT1G70… AT2G… AT3G13… AT2G… AT2G3… AT1G… AT1G72… AT1G… AT1G1… AT1G…
## 10 AT1G77… AT2G… AT3G56… AT3G… AT2G1… AT1G… AT1G72… AT1G… AT1G6… AT1G…
## # ... with 509 more rows, and 10 more variables: CKdown <chr>, GAup <chr>,
## #   GAdown <chr>, PIFtarget <chr>, MYC234up <chr>, MYC234down <chr>,
## #   SAup <chr>, Sadown <chr>, WRKY33up <chr>, WRKY33down <chr>

# conver to list obejct compatible with goseq()
hormone.responsiveness6.DF.s.list2.DF2

## # A tibble: 519 x 20
##    ABAdown ACCup ACCdown BLup  BLdown IAAup IAAdown MJup  MJdown CKup 
##    <chr>   <chr> <chr>   <chr> <chr>  <chr> <chr>   <chr> <chr>  <chr>
##  1 AT1G21… AT1G… AT1G70… AT1G… AT1G2… AT1G… AT1G74… AT1G… AT1G7… AT1G…
##  2 AT1G21… AT1G… AT1G29… AT1G… AT1G1… AT1G… AT1G31… AT1G… AT1G3… AT1G…
##  3 AT1G49… AT1G… AT1G28… AT1G… AT1G6… AT1G… AT1G17… AT1G… AT1G6… AT1G…
##  4 AT1G73… AT1G… AT1G64… AT2G… AT1G0… AT1G… AT1G13… AT1G… AT1G7… AT1G…
##  5 AT1G70… AT1G… AT1G72… AT2G… AT1G7… AT1G… AT1G18… AT1G… AT1G4… AT1G…
##  6 AT1G31… AT2G… AT2G26… AT2G… AT1G1… AT1G… AT1G31… AT1G… AT1G7… AT1G…
##  7 AT1G77… AT2G… AT2G24… AT2G… AT1G7… AT1G… AT1G77… AT1G… AT1G1… AT1G…
##  8 AT1G16… AT2G… AT2G03… AT2G… AT2G2… AT1G… AT1G13… AT1G… AT1G6… AT1G…
##  9 AT1G70… AT2G… AT3G13… AT2G… AT2G3… AT1G… AT1G72… AT1G… AT1G1… AT1G…
## 10 AT1G77… AT2G… AT3G56… AT3G… AT2G1… AT1G… AT1G72… AT1G… AT1G6… AT1G…
## # ... with 509 more rows, and 10 more variables: CKdown <chr>, GAup <chr>,
## #   GAdown <chr>, PIFtarget <chr>, MYC234up <chr>, MYC234down <chr>,
## #   SAup <chr>, Sadown <chr>, WRKY33up <chr>, WRKY33down <chr>
…
