Differential expression analysis with public available sequencing data |
…
combine count data in list

counts.list <- lapply(kallisto_files,read_tsv)
names(counts.list) <- kallisto_names
counts.list[[1]]

## # A tibble: 33,602 x 5
##    target_id   length eff_length est_counts   tpm
##    <chr>        <int>      <dbl>      <dbl> <dbl>
##  1 AT1G50920.1   2394       2195     3598   88.8 
##  2 AT1G36960.1    546        347        0    0   
##  3 AT1G44020.1   2314       2115       50.3  1.29
##  4 AT1G15970.1   1658       1459      427   15.9 
##  5 AT1G73440.1   1453       1254      133.   5.74
##  6 AT1G75120.1   1520       1321       52    2.13
##  7 AT1G17600.1   3332       3133      685   11.9 
##  8 AT1G50860.1   3846       3647        0    0   
##  9 AT1G51380.1   1452       1253       65    2.81
## 10 AT1G77370.1    620        421      728   93.7 
## # ... with 33,592 more rows

combine counts data

counts <- sapply(counts.list, dplyr::select, est_counts) %>% 
  bind_cols(counts.list[[1]][,"target_id"],.) 
counts[is.na(counts)] <- 0
colnames(counts) <- sub(".est_counts","",colnames(counts),fixed = TRUE)
counts

## # A tibble: 33,602 x 13
##    target_id SRR6739807 SRR6739808 SRR6739809 SRR6739810 SRR6739811
##    <chr>          <dbl>      <dbl>      <dbl>      <dbl>      <dbl>
##  1 AT1G5092…     3598       3442      3653          3531       4027
##  2 AT1G3696…        0          0         0             0          0
##  3 AT1G4402…       50.3       64.7       5.57         13          7
##  4 AT1G1597…      427        412       316           348        319
##  5 AT1G7344…      133.       129.      154           141        155
##  6 AT1G7512…       52         46        74           110        122
##  7 AT1G1760…      685        764       231           220        264
##  8 AT1G5086…        0          0         0             0          0
##  9 AT1G5138…       65         81        72            78         73
## 10 AT1G7737…      728        760       495           559        499
## # ... with 33,592 more rows, and 7 more variables: SRR6739812 <dbl>,
## #   SRR6739813 <dbl>, SRR6739814 <dbl>, SRR6739815 <dbl>,
## #   SRR6739816 <dbl>, SRR6739817 <dbl>, SRR6739818 <dbl>
…
# drawing table (under construction, 9/27/2018) needs to work on "model" column
#DEG.count %>% separate(object, into=c("genotype","term","model"),sep = "\\.",extra="drop")  %>% separate(model,into=c("model","ref_trt","ref_genotype"),sep="_") %>%  dplyr::arrange(tissue,term,model) %>% knitr::kable()

Plot gene expression pattern

For some reasons, labeller = label_wrap_gen(width=30) does not work here. Needs to make a function for plotting graph later to reduce redundancy of scripts.

# calculate normalized gene expression level
cpm.wide <- bind_cols(dge$gene,as_tibble(cpm(dge))) %>% as_tibble() %>% rename(transcript_ID=genes)
cpm.wide

## # A tibble: 33,602 x 13
##    transcript_ID SRR6739807 SRR6739808 SRR6739809 SRR6739810 SRR6739811
##    <chr>              <dbl>      <dbl>      <dbl>      <dbl>      <dbl>
##  1 AT1G50920.1       169.       164.      176.       159.       185.   
##  2 AT1G36960.1         0          0         0          0          0    
##  3 AT1G44020.1         2.36       3.07      0.268      0.584      0.321
##  4 AT1G15970.1        20.0       19.6      15.2       15.6       14.6  
##  5 AT1G73440.1         6.23       6.14      7.41       6.33       7.10 
##  6 AT1G75120.1         2.44       2.19      3.56       4.94       5.59 
##  7 AT1G17600.1        32.1       36.3      11.1        9.88      12.1  
##  8 AT1G50860.1         0          0         0          0          0    
##  9 AT1G51380.1         3.05       3.85      3.47       3.50       3.35 
## 10 AT1G77370.1        34.1       36.1      23.8       25.1       22.9  
## # ... with 33,592 more rows, and 7 more variables: SRR6739812 <dbl>,
## #   SRR6739813 <dbl>, SRR6739814 <dbl>, SRR6739815 <dbl>,
## #   SRR6739816 <dbl>, SRR6739817 <dbl>, SRR6739818 <dbl>
…
