Over-representation analysis 2: GOseq using custom categories | Daddy's data analysis by Kazu Nozue
…
system("rm ../../../resources/2018-09-26-over-representation-analysis-1-goseq-with-arabidopsis-go-term_files/TAIR10_cdna_20110103_representative_gene_model_updated")

Updated hormone responsive gene list1

hormone.responsiveness6.DF.s.list2.DF2<-readxl::read_xlsx(file.path("..","..","..","resources","2018-10-10-over-representation-analysis-2-goseq-using-custom-categories_files","Supplemental_Dataset3_source_of_custom_categories.xlsx"),skip=15,sheet=1) # Does not work. why? 
# because uglyURLs and canonifyURLs = true on 100818. I commented out them.
# Ask Kazu for this xlsx file.
hormone.responsiveness6.DF.s.list2.DF2

## # A tibble: 519 x 20
##    ABAdown ACCup ACCdown BLup  BLdown IAAup IAAdown MJup  MJdown CKup  CKdown
##    <chr>   <chr> <chr>   <chr> <chr>  <chr> <chr>   <chr> <chr>  <chr> <chr> 
##  1 AT1G21… AT1G… AT1G70… AT1G… AT1G2… AT1G… AT1G74… AT1G… AT1G7… AT1G… AT1G4…
##  2 AT1G21… AT1G… AT1G29… AT1G… AT1G1… AT1G… AT1G31… AT1G… AT1G3… AT1G… AT1G7…
##  3 AT1G49… AT1G… AT1G28… AT1G… AT1G6… AT1G… AT1G17… AT1G… AT1G6… AT1G… AT1G7…
##  4 AT1G73… AT1G… AT1G64… AT2G… AT1G0… AT1G… AT1G13… AT1G… AT1G7… AT1G… AT2G4…
##  5 AT1G70… AT1G… AT1G72… AT2G… AT1G7… AT1G… AT1G18… AT1G… AT1G4… AT1G… AT2G3…
##  6 AT1G31… AT2G… AT2G26… AT2G… AT1G1… AT1G… AT1G31… AT1G… AT1G7… AT1G… AT2G3…
##  7 AT1G77… AT2G… AT2G24… AT2G… AT1G7… AT1G… AT1G77… AT1G… AT1G1… AT1G… AT2G2…
##  8 AT1G16… AT2G… AT2G03… AT2G… AT2G2… AT1G… AT1G13… AT1G… AT1G6… AT1G… AT4G1…
##  9 AT1G70… AT2G… AT3G13… AT2G… AT2G3… AT1G… AT1G72… AT1G… AT1G1… AT1G… AT4G3…
## 10 AT1G77… AT2G… AT3G56… AT3G… AT2G1… AT1G… AT1G72… AT1G… AT1G6… AT1G… AT4G3…
## # … with 509 more rows, and 9 more variables: GAup <chr>, GAdown <chr>,
## #   PIFtarget <chr>, MYC234up <chr>, MYC234down <chr>, SAup <chr>,
## #   Sadown <chr>, WRKY33up <chr>, WRKY33down <chr>
…
